{
  "category_id": "animal",
  "category_name": "Animal",
  "current_page": 1,
  "total_pages": 3,
  "items_per_page": 10,
  "total_items": 25,
  "has_next": true,
  "next_page_url": "/category/animal_page_2.json",
  "data": [
    {
      "id": "1",
      "title": "614014  Aarontheonly  Roar8",
      "category": "animal",
      "tags": [
        "animal",
        "ringtone"
      ],
      "duration": 30,
      "size_kb": 260,
      "preview_url": "https://bettery.art/ringtone/animal/614014__aarontheonly__roar8.wav",
      "url": "https://bettery.art/ringtone/animal/614014__aarontheonly__roar8.wav"
    },
    {
      "id": "2",
      "title": "Tieng Tra Keu Www Tiengdong Com",
      "category": "animal",
      "tags": [
        "animal",
        "ringtone"
      ],
      "duration": 30,
      "size_kb": 1248,
      "preview_url": "https://bettery.art/ringtone/animal/tieng_trau_keu-www_tiengdong_com.mp3",
      "url": "https://bettery.art/ringtone/animal/tieng_trau_keu-www_tiengdong_com.mp3"
    },
    {
      "id": "3",
      "title": "Hot Bird Singing Www Tiengdong Com",
      "category": "animal",
      "tags": [
        "animal",
        "ringtone"
      ],
      "duration": 30,
      "size_kb": 2620,
      "preview_url": "https://bettery.art/ringtone/animal/tieng_chim_hot_buoi_sang-www_tiengdong_com.mp3",
      "url": "https://bettery.art/ringtone/animal/tieng_chim_hot_buoi_sang-www_tiengdong_com.mp3"
    },
    {
      "id": "4",
      "title": "Shit Of A Gold.",
      "category": "animal",
      "tags": [
        "animal",
        "ringtone"
      ],
      "duration": 30,
      "size_kb": 8924,
      "preview_url": "https://bettery.art/ringtone/animal/tieng_meo_keu-www_tiengdong_com.mp3",
      "url": "https://bettery.art/ringtone/animal/tieng_meo_keu-www_tiengdong_com.mp3"
    },
    {
      "id": "5",
      "title": "Tieng Chao Mao Hot Www Tiengdong Com",
      "category": "animal",
      "tags": [
        "animal",
        "ringtone"
      ],
      "duration": 30,
      "size_kb": 8963,
      "preview_url": "https://bettery.art/ringtone/animal/tieng_chao_mao_hot-www_tiengdong_com.mp3",
      "url": "https://bettery.art/ringtone/animal/tieng_chao_mao_hot-www_tiengdong_com.mp3"
    },
    {
      "id": "6",
      "title": "2013",
      "category": "animal",
      "tags": [
        "animal",
        "ringtone"
      ],
      "duration": 30,
      "size_kb": 124,
      "preview_url": "https://bettery.art/ringtone/animal/tieng_ga_mai_cuc_tac_De-www_tiengdong_com.mp3",
      "url": "https://bettery.art/ringtone/animal/tieng_ga_mai_cuc_tac_De-www_tiengdong_com.mp3"
    },
    {
      "id": "7",
      "title": "You'S Vit To You Stop Com",
      "category": "animal",
      "tags": [
        "animal",
        "ringtone"
      ],
      "duration": 30,
      "size_kb": 355,
      "preview_url": "https://bettery.art/ringtone/animal/tieng_vit_keu-www_tiengdong_com.mp3",
      "url": "https://bettery.art/ringtone/animal/tieng_vit_keu-www_tiengdong_com.mp3"
    },
    {
      "id": "8",
      "title": "638003  Wax Vibe  Dog Barking In The Street",
      "category": "animal",
      "tags": [
        "animal",
        "ringtone"
      ],
      "duration": 30,
      "size_kb": 3282,
      "preview_url": "https://bettery.art/ringtone/animal/638003__wax_vibe__dog-barking-in-the-street.wav",
      "url": "https://bettery.art/ringtone/animal/638003__wax_vibe__dog-barking-in-the-street.wav"
    },
    {
      "id": "9",
      "title": "Chuot Keu Www Tiengdong Com",
      "category": "animal",
      "tags": [
        "animal",
        "ringtone"
      ],
      "duration": 30,
      "size_kb": 1992,
      "preview_url": "https://bettery.art/ringtone/animal/tieng_chuot_keu-www_tiengdong_com.mp3",
      "url": "https://bettery.art/ringtone/animal/tieng_chuot_keu-www_tiengdong_com.mp3"
    },
    {
      "id": "10",
      "title": "614189 Cute And Lovely Handmade Items",
      "category": "animal",
      "tags": [
        "animal",
        "ringtone"
      ],
      "duration": 30,
      "size_kb": 382,
      "preview_url": "https://bettery.art/ringtone/animal/614189__sieuamthanh__ong-vat-nho-de-thuong.wav",
      "url": "https://bettery.art/ringtone/animal/614189__sieuamthanh__ong-vat-nho-de-thuong.wav"
    }
  ]
}