{
  "category_id": "animal",
  "category_name": "Animal",
  "current_page": 3,
  "total_pages": 3,
  "items_per_page": 10,
  "total_items": 25,
  "has_next": false,
  "next_page_url": null,
  "data": [
    {
      "id": "21",
      "title": "The Sounds Of Animals In The Wild Www Tiengdong Com",
      "category": "animal",
      "tags": [
        "animal",
        "ringtone"
      ],
      "duration": 30,
      "size_kb": 3133,
      "preview_url": "https://bettery.art/ringtone/animal/tieng_keu_cac_con_vat_trong_rung_ngoai_hoang_da-www_tiengdong_com.mp3",
      "url": "https://bettery.art/ringtone/animal/tieng_keu_cac_con_vat_trong_rung_ngoai_hoang_da-www_tiengdong_com.mp3"
    },
    {
      "id": "22",
      "title": "The Language Of Animals Www Languagedong Com",
      "category": "animal",
      "tags": [
        "animal",
        "ringtone"
      ],
      "duration": 30,
      "size_kb": 1724,
      "preview_url": "https://bettery.art/ringtone/animal/tieng_keu_cac_con_vat-www_tiengdong_com.mp3",
      "url": "https://bettery.art/ringtone/animal/tieng_keu_cac_con_vat-www_tiengdong_com.mp3"
    },
    {
      "id": "23",
      "title": "English For Sua Www Tiengdong Com",
      "category": "animal",
      "tags": [
        "animal",
        "ringtone"
      ],
      "duration": 30,
      "size_kb": 3594,
      "preview_url": "https://bettery.art/ringtone/animal/tieng_cho_sua-www_tiengdong_com.mp3",
      "url": "https://bettery.art/ringtone/animal/tieng_cho_sua-www_tiengdong_com.mp3"
    },
    {
      "id": "24",
      "title": "756236 Vrymaa Animal Cat Meow",
      "category": "animal",
      "tags": [
        "animal",
        "ringtone"
      ],
      "duration": 30,
      "size_kb": 1030,
      "preview_url": "https://bettery.art/ringtone/animal/756236__vrymaa__animal-cat-meow.wav",
      "url": "https://bettery.art/ringtone/animal/756236__vrymaa__animal-cat-meow.wav"
    },
    {
      "id": "25",
      "title": "English For Kids 3 Languages ​​Www Tiengdong Com",
      "category": "animal",
      "tags": [
        "animal",
        "ringtone"
      ],
      "duration": 30,
      "size_kb": 76,
      "preview_url": "https://bettery.art/ringtone/animal/tieng_con_cho_sua_ngan_3_tieng-www_tiengdong_com.mp3",
      "url": "https://bettery.art/ringtone/animal/tieng_con_cho_sua_ngan_3_tieng-www_tiengdong_com.mp3"
    }
  ]
}