{
  "category_id": "animal",
  "category_name": "Animal",
  "current_page": 2,
  "total_pages": 3,
  "items_per_page": 10,
  "total_items": 25,
  "has_next": true,
  "next_page_url": "/category/animal_page_3.json",
  "data": [
    {
      "id": "11",
      "title": "Tieng Ngua Hi Www Tiengdong Com",
      "category": "animal",
      "tags": [
        "animal",
        "ringtone"
      ],
      "duration": 30,
      "size_kb": 300,
      "preview_url": "https://bettery.art/ringtone/animal/tieng_ngua_hi-www_tiengdong_com.mp3",
      "url": "https://bettery.art/ringtone/animal/tieng_ngua_hi-www_tiengdong_com.mp3"
    },
    {
      "id": "12",
      "title": "English Language Of Da Dieu Keu Www Languagedong Com",
      "category": "animal",
      "tags": [
        "animal",
        "ringtone"
      ],
      "duration": 30,
      "size_kb": 1065,
      "preview_url": "https://bettery.art/ringtone/animal/tieng_con_Da_Dieu_keu-www_tiengdong_com.mp3",
      "url": "https://bettery.art/ringtone/animal/tieng_con_Da_Dieu_keu-www_tiengdong_com.mp3"
    },
    {
      "id": "13",
      "title": "Www Tiengdong Com",
      "category": "animal",
      "tags": [
        "animal",
        "ringtone"
      ],
      "duration": 30,
      "size_kb": 1611,
      "preview_url": "https://bettery.art/ringtone/animal/tieng_nghe_keu-www_tiengdong_com.mp3",
      "url": "https://bettery.art/ringtone/animal/tieng_nghe_keu-www_tiengdong_com.mp3"
    },
    {
      "id": "14",
      "title": "233173  Jarredgibb  Pig Grunt 5 Deep 96Khz",
      "category": "animal",
      "tags": [
        "animal",
        "ringtone"
      ],
      "duration": 30,
      "size_kb": 720,
      "preview_url": "https://bettery.art/ringtone/animal/233173__jarredgibb__pig-grunt-5-deep-96khz.wav",
      "url": "https://bettery.art/ringtone/animal/233173__jarredgibb__pig-grunt-5-deep-96khz.wav"
    },
    {
      "id": "15",
      "title": "Tieng Ga Con Keu Www Tiengdong Com",
      "category": "animal",
      "tags": [
        "animal",
        "ringtone"
      ],
      "duration": 30,
      "size_kb": 2218,
      "preview_url": "https://bettery.art/ringtone/animal/tieng_ga_con_keu-www_tiengdong_com.mp3",
      "url": "https://bettery.art/ringtone/animal/tieng_ga_con_keu-www_tiengdong_com.mp3"
    },
    {
      "id": "16",
      "title": "233130  Jarredgibb  Cow Moo 1 96Khz",
      "category": "animal",
      "tags": [
        "animal",
        "ringtone"
      ],
      "duration": 30,
      "size_kb": 958,
      "preview_url": "https://bettery.art/ringtone/animal/233130__jarredgibb__cow-moo-1-96khz.wav",
      "url": "https://bettery.art/ringtone/animal/233130__jarredgibb__cow-moo-1-96khz.wav"
    },
    {
      "id": "17",
      "title": "697728  Starryskydancer  Generic Animal",
      "category": "animal",
      "tags": [
        "animal",
        "ringtone"
      ],
      "duration": 30,
      "size_kb": 30,
      "preview_url": "https://bettery.art/ringtone/animal/697728__starryskydancer__generic-animal.mp3",
      "url": "https://bettery.art/ringtone/animal/697728__starryskydancer__generic-animal.mp3"
    },
    {
      "id": "18",
      "title": "76590  Dsp9000  Nagging Cat",
      "category": "animal",
      "tags": [
        "animal",
        "ringtone"
      ],
      "duration": 30,
      "size_kb": 834,
      "preview_url": "https://bettery.art/ringtone/animal/76590__dsp9000__nagging-cat.wav",
      "url": "https://bettery.art/ringtone/animal/76590__dsp9000__nagging-cat.wav"
    },
    {
      "id": "19",
      "title": "Tieng Hoa Mi Hot Www Tiengdong Com",
      "category": "animal",
      "tags": [
        "animal",
        "ringtone"
      ],
      "duration": 30,
      "size_kb": 3810,
      "preview_url": "https://bettery.art/ringtone/animal/tieng_hoa_mi_hot-www_tiengdong_com.mp3",
      "url": "https://bettery.art/ringtone/animal/tieng_hoa_mi_hot-www_tiengdong_com.mp3"
    },
    {
      "id": "20",
      "title": "Remain The One To Www Tingong Com",
      "category": "animal",
      "tags": [
        "animal",
        "ringtone"
      ],
      "duration": 30,
      "size_kb": 4464,
      "preview_url": "https://bettery.art/ringtone/animal/tieng_bo_sua_keu-www_tiengdong_com.mp3",
      "url": "https://bettery.art/ringtone/animal/tieng_bo_sua_keu-www_tiengdong_com.mp3"
    }
  ]
}