{
  "category_id": "blash-ringtone",
  "category_name": "Blash-Ringtone",
  "current_page": 4,
  "total_pages": 5,
  "items_per_page": 10,
  "total_items": 50,
  "has_next": true,
  "next_page_url": "/category/blash-ringtone_page_5.json",
  "data": [
    {
      "id": "31",
      "title": "Ringtone Underthemangotree 4",
      "category": "blash-ringtone",
      "tags": [
        "blash-ringtone",
        "ringtone"
      ],
      "duration": 30,
      "size_kb": 704,
      "preview_url": "https://bettery.art/ringtone/blash-ringtone/ringtone-underthemangotree-4.mp3",
      "url": "https://bettery.art/ringtone/blash-ringtone/ringtone-underthemangotree-4.mp3"
    },
    {
      "id": "32",
      "title": "Ringtone Pocketsunbeam(1) 1",
      "category": "blash-ringtone",
      "tags": [
        "blash-ringtone",
        "ringtone"
      ],
      "duration": 30,
      "size_kb": 704,
      "preview_url": "https://bettery.art/ringtone/blash-ringtone/ringtone-pocketsunbeam(1)-1.mp3",
      "url": "https://bettery.art/ringtone/blash-ringtone/ringtone-pocketsunbeam(1)-1.mp3"
    },
    {
      "id": "33",
      "title": "Ringtone Underthemangotree 5",
      "category": "blash-ringtone",
      "tags": [
        "blash-ringtone",
        "ringtone"
      ],
      "duration": 30,
      "size_kb": 704,
      "preview_url": "https://bettery.art/ringtone/blash-ringtone/ringtone-underthemangotree-5.mp3",
      "url": "https://bettery.art/ringtone/blash-ringtone/ringtone-underthemangotree-5.mp3"
    },
    {
      "id": "34",
      "title": "Ringtone Underthemangotree(1) 2",
      "category": "blash-ringtone",
      "tags": [
        "blash-ringtone",
        "ringtone"
      ],
      "duration": 30,
      "size_kb": 704,
      "preview_url": "https://bettery.art/ringtone/blash-ringtone/ringtone-underthemangotree(1)-2.mp3",
      "url": "https://bettery.art/ringtone/blash-ringtone/ringtone-underthemangotree(1)-2.mp3"
    },
    {
      "id": "35",
      "title": "Ringtone Lateafternoonlight(2) 5",
      "category": "blash-ringtone",
      "tags": [
        "blash-ringtone",
        "ringtone"
      ],
      "duration": 30,
      "size_kb": 700,
      "preview_url": "https://bettery.art/ringtone/blash-ringtone/ringtone-lateafternoonlight(2)-5.mp3",
      "url": "https://bettery.art/ringtone/blash-ringtone/ringtone-lateafternoonlight(2)-5.mp3"
    },
    {
      "id": "36",
      "title": "Ringtone Lateafternoonlight(2) 4",
      "category": "blash-ringtone",
      "tags": [
        "blash-ringtone",
        "ringtone"
      ],
      "duration": 30,
      "size_kb": 704,
      "preview_url": "https://bettery.art/ringtone/blash-ringtone/ringtone-lateafternoonlight(2)-4.mp3",
      "url": "https://bettery.art/ringtone/blash-ringtone/ringtone-lateafternoonlight(2)-4.mp3"
    },
    {
      "id": "37",
      "title": "Ringtone Underthemangotree(1) 3",
      "category": "blash-ringtone",
      "tags": [
        "blash-ringtone",
        "ringtone"
      ],
      "duration": 30,
      "size_kb": 704,
      "preview_url": "https://bettery.art/ringtone/blash-ringtone/ringtone-underthemangotree(1)-3.mp3",
      "url": "https://bettery.art/ringtone/blash-ringtone/ringtone-underthemangotree(1)-3.mp3"
    },
    {
      "id": "38",
      "title": "Ringtone Underthemangotree(1) 1",
      "category": "blash-ringtone",
      "tags": [
        "blash-ringtone",
        "ringtone"
      ],
      "duration": 30,
      "size_kb": 704,
      "preview_url": "https://bettery.art/ringtone/blash-ringtone/ringtone-underthemangotree(1)-1.mp3",
      "url": "https://bettery.art/ringtone/blash-ringtone/ringtone-underthemangotree(1)-1.mp3"
    },
    {
      "id": "39",
      "title": "Ringtone Lateafternoonlight(2) 6",
      "category": "blash-ringtone",
      "tags": [
        "blash-ringtone",
        "ringtone"
      ],
      "duration": 30,
      "size_kb": 697,
      "preview_url": "https://bettery.art/ringtone/blash-ringtone/ringtone-lateafternoonlight(2)-6.mp3",
      "url": "https://bettery.art/ringtone/blash-ringtone/ringtone-lateafternoonlight(2)-6.mp3"
    },
    {
      "id": "40",
      "title": "Ringtone Lateafternoonlight(2) 7",
      "category": "blash-ringtone",
      "tags": [
        "blash-ringtone",
        "ringtone"
      ],
      "duration": 30,
      "size_kb": 704,
      "preview_url": "https://bettery.art/ringtone/blash-ringtone/ringtone-lateafternoonlight(2)-7.mp3",
      "url": "https://bettery.art/ringtone/blash-ringtone/ringtone-lateafternoonlight(2)-7.mp3"
    }
  ]
}