{
  "category_id": "blash-ringtone",
  "category_name": "Blash-Ringtone",
  "current_page": 5,
  "total_pages": 5,
  "items_per_page": 10,
  "total_items": 50,
  "has_next": false,
  "next_page_url": null,
  "data": [
    {
      "id": "41",
      "title": "Ringtone Underthemangotree(1) 4",
      "category": "blash-ringtone",
      "tags": [
        "blash-ringtone",
        "ringtone"
      ],
      "duration": 30,
      "size_kb": 704,
      "preview_url": "https://bettery.art/ringtone/blash-ringtone/ringtone-underthemangotree(1)-4.mp3",
      "url": "https://bettery.art/ringtone/blash-ringtone/ringtone-underthemangotree(1)-4.mp3"
    },
    {
      "id": "42",
      "title": "Ringtone Lateafternoonlight(2) 3",
      "category": "blash-ringtone",
      "tags": [
        "blash-ringtone",
        "ringtone"
      ],
      "duration": 30,
      "size_kb": 704,
      "preview_url": "https://bettery.art/ringtone/blash-ringtone/ringtone-lateafternoonlight(2)-3.mp3",
      "url": "https://bettery.art/ringtone/blash-ringtone/ringtone-lateafternoonlight(2)-3.mp3"
    },
    {
      "id": "43",
      "title": "Ringtone Lateafternoonlight(2) 2",
      "category": "blash-ringtone",
      "tags": [
        "blash-ringtone",
        "ringtone"
      ],
      "duration": 30,
      "size_kb": 704,
      "preview_url": "https://bettery.art/ringtone/blash-ringtone/ringtone-lateafternoonlight(2)-2.mp3",
      "url": "https://bettery.art/ringtone/blash-ringtone/ringtone-lateafternoonlight(2)-2.mp3"
    },
    {
      "id": "44",
      "title": "Ringtone Underthemangotree(1) 5",
      "category": "blash-ringtone",
      "tags": [
        "blash-ringtone",
        "ringtone"
      ],
      "duration": 30,
      "size_kb": 704,
      "preview_url": "https://bettery.art/ringtone/blash-ringtone/ringtone-underthemangotree(1)-5.mp3",
      "url": "https://bettery.art/ringtone/blash-ringtone/ringtone-underthemangotree(1)-5.mp3"
    },
    {
      "id": "45",
      "title": "Ringtone Underthemangotree(1) 7",
      "category": "blash-ringtone",
      "tags": [
        "blash-ringtone",
        "ringtone"
      ],
      "duration": 30,
      "size_kb": 704,
      "preview_url": "https://bettery.art/ringtone/blash-ringtone/ringtone-underthemangotree(1)-7.mp3",
      "url": "https://bettery.art/ringtone/blash-ringtone/ringtone-underthemangotree(1)-7.mp3"
    },
    {
      "id": "46",
      "title": "Ringtone Lateafternoonlight(2) 1",
      "category": "blash-ringtone",
      "tags": [
        "blash-ringtone",
        "ringtone"
      ],
      "duration": 30,
      "size_kb": 704,
      "preview_url": "https://bettery.art/ringtone/blash-ringtone/ringtone-lateafternoonlight(2)-1.mp3",
      "url": "https://bettery.art/ringtone/blash-ringtone/ringtone-lateafternoonlight(2)-1.mp3"
    },
    {
      "id": "47",
      "title": "Ringtone Underthemangotree(1) 6",
      "category": "blash-ringtone",
      "tags": [
        "blash-ringtone",
        "ringtone"
      ],
      "duration": 30,
      "size_kb": 704,
      "preview_url": "https://bettery.art/ringtone/blash-ringtone/ringtone-underthemangotree(1)-6.mp3",
      "url": "https://bettery.art/ringtone/blash-ringtone/ringtone-underthemangotree(1)-6.mp3"
    },
    {
      "id": "48",
      "title": "Ringtone Pocketsunbeam 3",
      "category": "blash-ringtone",
      "tags": [
        "blash-ringtone",
        "ringtone"
      ],
      "duration": 30,
      "size_kb": 704,
      "preview_url": "https://bettery.art/ringtone/blash-ringtone/ringtone-pocketsunbeam-3.mp3",
      "url": "https://bettery.art/ringtone/blash-ringtone/ringtone-pocketsunbeam-3.mp3"
    },
    {
      "id": "49",
      "title": "Ringtone Pocketsunbeam 2",
      "category": "blash-ringtone",
      "tags": [
        "blash-ringtone",
        "ringtone"
      ],
      "duration": 30,
      "size_kb": 696,
      "preview_url": "https://bettery.art/ringtone/blash-ringtone/ringtone-pocketsunbeam-2.mp3",
      "url": "https://bettery.art/ringtone/blash-ringtone/ringtone-pocketsunbeam-2.mp3"
    },
    {
      "id": "50",
      "title": "Ringtone Pocketsunbeam 1",
      "category": "blash-ringtone",
      "tags": [
        "blash-ringtone",
        "ringtone"
      ],
      "duration": 30,
      "size_kb": 704,
      "preview_url": "https://bettery.art/ringtone/blash-ringtone/ringtone-pocketsunbeam-1.mp3",
      "url": "https://bettery.art/ringtone/blash-ringtone/ringtone-pocketsunbeam-1.mp3"
    }
  ]
}