{
  "category_id": "blash-ringtone",
  "category_name": "Blash-Ringtone",
  "current_page": 2,
  "total_pages": 5,
  "items_per_page": 10,
  "total_items": 50,
  "has_next": true,
  "next_page_url": "/category/blash-ringtone_page_3.json",
  "data": [
    {
      "id": "11",
      "title": "Ringtone Lovesong 2",
      "category": "blash-ringtone",
      "tags": [
        "blash-ringtone",
        "ringtone"
      ],
      "duration": 30,
      "size_kb": 703,
      "preview_url": "https://bettery.art/ringtone/blash-ringtone/ringtone-lovesong-2.mp3",
      "url": "https://bettery.art/ringtone/blash-ringtone/ringtone-lovesong-2.mp3"
    },
    {
      "id": "12",
      "title": "Ringtone Lateafternoonlight 3",
      "category": "blash-ringtone",
      "tags": [
        "blash-ringtone",
        "ringtone"
      ],
      "duration": 30,
      "size_kb": 704,
      "preview_url": "https://bettery.art/ringtone/blash-ringtone/ringtone-lateafternoonlight-3.mp3",
      "url": "https://bettery.art/ringtone/blash-ringtone/ringtone-lateafternoonlight-3.mp3"
    },
    {
      "id": "13",
      "title": "Ringtone Lovesong 6",
      "category": "blash-ringtone",
      "tags": [
        "blash-ringtone",
        "ringtone"
      ],
      "duration": 30,
      "size_kb": 704,
      "preview_url": "https://bettery.art/ringtone/blash-ringtone/ringtone-lovesong-6.mp3",
      "url": "https://bettery.art/ringtone/blash-ringtone/ringtone-lovesong-6.mp3"
    },
    {
      "id": "14",
      "title": "Ringtone Lateafternoonlight(1) 4",
      "category": "blash-ringtone",
      "tags": [
        "blash-ringtone",
        "ringtone"
      ],
      "duration": 30,
      "size_kb": 704,
      "preview_url": "https://bettery.art/ringtone/blash-ringtone/ringtone-lateafternoonlight(1)-4.mp3",
      "url": "https://bettery.art/ringtone/blash-ringtone/ringtone-lateafternoonlight(1)-4.mp3"
    },
    {
      "id": "15",
      "title": "Ringtone Lateafternoonlight(1) 5",
      "category": "blash-ringtone",
      "tags": [
        "blash-ringtone",
        "ringtone"
      ],
      "duration": 30,
      "size_kb": 700,
      "preview_url": "https://bettery.art/ringtone/blash-ringtone/ringtone-lateafternoonlight(1)-5.mp3",
      "url": "https://bettery.art/ringtone/blash-ringtone/ringtone-lateafternoonlight(1)-5.mp3"
    },
    {
      "id": "16",
      "title": "Ringtone Lateafternoonlight 2",
      "category": "blash-ringtone",
      "tags": [
        "blash-ringtone",
        "ringtone"
      ],
      "duration": 30,
      "size_kb": 704,
      "preview_url": "https://bettery.art/ringtone/blash-ringtone/ringtone-lateafternoonlight-2.mp3",
      "url": "https://bettery.art/ringtone/blash-ringtone/ringtone-lateafternoonlight-2.mp3"
    },
    {
      "id": "17",
      "title": "Ringtone Lovesong 5",
      "category": "blash-ringtone",
      "tags": [
        "blash-ringtone",
        "ringtone"
      ],
      "duration": 30,
      "size_kb": 704,
      "preview_url": "https://bettery.art/ringtone/blash-ringtone/ringtone-lovesong-5.mp3",
      "url": "https://bettery.art/ringtone/blash-ringtone/ringtone-lovesong-5.mp3"
    },
    {
      "id": "18",
      "title": "Ringtone Lateafternoonlight(1) 7",
      "category": "blash-ringtone",
      "tags": [
        "blash-ringtone",
        "ringtone"
      ],
      "duration": 30,
      "size_kb": 704,
      "preview_url": "https://bettery.art/ringtone/blash-ringtone/ringtone-lateafternoonlight(1)-7.mp3",
      "url": "https://bettery.art/ringtone/blash-ringtone/ringtone-lateafternoonlight(1)-7.mp3"
    },
    {
      "id": "19",
      "title": "Ringtone Midnightoverpasses(1) 4",
      "category": "blash-ringtone",
      "tags": [
        "blash-ringtone",
        "ringtone"
      ],
      "duration": 30,
      "size_kb": 704,
      "preview_url": "https://bettery.art/ringtone/blash-ringtone/ringtone-midnightoverpasses(1)-4.mp3",
      "url": "https://bettery.art/ringtone/blash-ringtone/ringtone-midnightoverpasses(1)-4.mp3"
    },
    {
      "id": "20",
      "title": "Ringtone Lateafternoonlight(1) 6",
      "category": "blash-ringtone",
      "tags": [
        "blash-ringtone",
        "ringtone"
      ],
      "duration": 30,
      "size_kb": 697,
      "preview_url": "https://bettery.art/ringtone/blash-ringtone/ringtone-lateafternoonlight(1)-6.mp3",
      "url": "https://bettery.art/ringtone/blash-ringtone/ringtone-lateafternoonlight(1)-6.mp3"
    }
  ]
}