{
  "category_id": "blash-ringtone",
  "category_name": "Blash-Ringtone",
  "current_page": 1,
  "total_pages": 5,
  "items_per_page": 10,
  "total_items": 50,
  "has_next": true,
  "next_page_url": "/category/blash-ringtone_page_2.json",
  "data": [
    {
      "id": "1",
      "title": "Ringtone Lateafternoonlight 5",
      "category": "blash-ringtone",
      "tags": [
        "blash-ringtone",
        "ringtone"
      ],
      "duration": 30,
      "size_kb": 704,
      "preview_url": "https://bettery.art/ringtone/blash-ringtone/ringtone-lateafternoonlight-5.mp3",
      "url": "https://bettery.art/ringtone/blash-ringtone/ringtone-lateafternoonlight-5.mp3"
    },
    {
      "id": "2",
      "title": "Ringtone Lateafternoonlight(1) 2",
      "category": "blash-ringtone",
      "tags": [
        "blash-ringtone",
        "ringtone"
      ],
      "duration": 30,
      "size_kb": 704,
      "preview_url": "https://bettery.art/ringtone/blash-ringtone/ringtone-lateafternoonlight(1)-2.mp3",
      "url": "https://bettery.art/ringtone/blash-ringtone/ringtone-lateafternoonlight(1)-2.mp3"
    },
    {
      "id": "3",
      "title": "Ringtone Midnightoverpasses(1) 1",
      "category": "blash-ringtone",
      "tags": [
        "blash-ringtone",
        "ringtone"
      ],
      "duration": 30,
      "size_kb": 704,
      "preview_url": "https://bettery.art/ringtone/blash-ringtone/ringtone-midnightoverpasses(1)-1.mp3",
      "url": "https://bettery.art/ringtone/blash-ringtone/ringtone-midnightoverpasses(1)-1.mp3"
    },
    {
      "id": "4",
      "title": "Ringtone Lateafternoonlight(1) 3",
      "category": "blash-ringtone",
      "tags": [
        "blash-ringtone",
        "ringtone"
      ],
      "duration": 30,
      "size_kb": 704,
      "preview_url": "https://bettery.art/ringtone/blash-ringtone/ringtone-lateafternoonlight(1)-3.mp3",
      "url": "https://bettery.art/ringtone/blash-ringtone/ringtone-lateafternoonlight(1)-3.mp3"
    },
    {
      "id": "5",
      "title": "Ringtone Lovesong 1",
      "category": "blash-ringtone",
      "tags": [
        "blash-ringtone",
        "ringtone"
      ],
      "duration": 30,
      "size_kb": 704,
      "preview_url": "https://bettery.art/ringtone/blash-ringtone/ringtone-lovesong-1.mp3",
      "url": "https://bettery.art/ringtone/blash-ringtone/ringtone-lovesong-1.mp3"
    },
    {
      "id": "6",
      "title": "Ringtone Lateafternoonlight 4",
      "category": "blash-ringtone",
      "tags": [
        "blash-ringtone",
        "ringtone"
      ],
      "duration": 30,
      "size_kb": 704,
      "preview_url": "https://bettery.art/ringtone/blash-ringtone/ringtone-lateafternoonlight-4.mp3",
      "url": "https://bettery.art/ringtone/blash-ringtone/ringtone-lateafternoonlight-4.mp3"
    },
    {
      "id": "7",
      "title": "Ringtone Lovesong 3",
      "category": "blash-ringtone",
      "tags": [
        "blash-ringtone",
        "ringtone"
      ],
      "duration": 30,
      "size_kb": 704,
      "preview_url": "https://bettery.art/ringtone/blash-ringtone/ringtone-lovesong-3.mp3",
      "url": "https://bettery.art/ringtone/blash-ringtone/ringtone-lovesong-3.mp3"
    },
    {
      "id": "8",
      "title": "Ringtone Midnightoverpasses(1) 3",
      "category": "blash-ringtone",
      "tags": [
        "blash-ringtone",
        "ringtone"
      ],
      "duration": 30,
      "size_kb": 704,
      "preview_url": "https://bettery.art/ringtone/blash-ringtone/ringtone-midnightoverpasses(1)-3.mp3",
      "url": "https://bettery.art/ringtone/blash-ringtone/ringtone-midnightoverpasses(1)-3.mp3"
    },
    {
      "id": "9",
      "title": "Ringtone Lateafternoonlight(1) 1",
      "category": "blash-ringtone",
      "tags": [
        "blash-ringtone",
        "ringtone"
      ],
      "duration": 30,
      "size_kb": 704,
      "preview_url": "https://bettery.art/ringtone/blash-ringtone/ringtone-lateafternoonlight(1)-1.mp3",
      "url": "https://bettery.art/ringtone/blash-ringtone/ringtone-lateafternoonlight(1)-1.mp3"
    },
    {
      "id": "10",
      "title": "Ringtone Midnightoverpasses(1) 2",
      "category": "blash-ringtone",
      "tags": [
        "blash-ringtone",
        "ringtone"
      ],
      "duration": 30,
      "size_kb": 704,
      "preview_url": "https://bettery.art/ringtone/blash-ringtone/ringtone-midnightoverpasses(1)-2.mp3",
      "url": "https://bettery.art/ringtone/blash-ringtone/ringtone-midnightoverpasses(1)-2.mp3"
    }
  ]
}