{
  "category_id": "blash-ringtone",
  "category_name": "Blash-Ringtone",
  "current_page": 3,
  "total_pages": 5,
  "items_per_page": 10,
  "total_items": 50,
  "has_next": true,
  "next_page_url": "/category/blash-ringtone_page_4.json",
  "data": [
    {
      "id": "21",
      "title": "Ringtone Lovesong 4",
      "category": "blash-ringtone",
      "tags": [
        "blash-ringtone",
        "ringtone"
      ],
      "duration": 30,
      "size_kb": 704,
      "preview_url": "https://bettery.art/ringtone/blash-ringtone/ringtone-lovesong-4.mp3",
      "url": "https://bettery.art/ringtone/blash-ringtone/ringtone-lovesong-4.mp3"
    },
    {
      "id": "22",
      "title": "Ringtone Lateafternoonlight 1",
      "category": "blash-ringtone",
      "tags": [
        "blash-ringtone",
        "ringtone"
      ],
      "duration": 30,
      "size_kb": 704,
      "preview_url": "https://bettery.art/ringtone/blash-ringtone/ringtone-lateafternoonlight-1.mp3",
      "url": "https://bettery.art/ringtone/blash-ringtone/ringtone-lateafternoonlight-1.mp3"
    },
    {
      "id": "23",
      "title": "Ringtone Underthemangotree 1",
      "category": "blash-ringtone",
      "tags": [
        "blash-ringtone",
        "ringtone"
      ],
      "duration": 30,
      "size_kb": 704,
      "preview_url": "https://bettery.art/ringtone/blash-ringtone/ringtone-underthemangotree-1.mp3",
      "url": "https://bettery.art/ringtone/blash-ringtone/ringtone-underthemangotree-1.mp3"
    },
    {
      "id": "24",
      "title": "Ringtone Midnightoverpasses 2",
      "category": "blash-ringtone",
      "tags": [
        "blash-ringtone",
        "ringtone"
      ],
      "duration": 30,
      "size_kb": 704,
      "preview_url": "https://bettery.art/ringtone/blash-ringtone/ringtone-midnightoverpasses-2.mp3",
      "url": "https://bettery.art/ringtone/blash-ringtone/ringtone-midnightoverpasses-2.mp3"
    },
    {
      "id": "25",
      "title": "Ringtone Underthemangotree 2",
      "category": "blash-ringtone",
      "tags": [
        "blash-ringtone",
        "ringtone"
      ],
      "duration": 30,
      "size_kb": 704,
      "preview_url": "https://bettery.art/ringtone/blash-ringtone/ringtone-underthemangotree-2.mp3",
      "url": "https://bettery.art/ringtone/blash-ringtone/ringtone-underthemangotree-2.mp3"
    },
    {
      "id": "26",
      "title": "Ringtone Midnightoverpasses 1",
      "category": "blash-ringtone",
      "tags": [
        "blash-ringtone",
        "ringtone"
      ],
      "duration": 30,
      "size_kb": 704,
      "preview_url": "https://bettery.art/ringtone/blash-ringtone/ringtone-midnightoverpasses-1.mp3",
      "url": "https://bettery.art/ringtone/blash-ringtone/ringtone-midnightoverpasses-1.mp3"
    },
    {
      "id": "27",
      "title": "Ringtone Underthemangotree 3",
      "category": "blash-ringtone",
      "tags": [
        "blash-ringtone",
        "ringtone"
      ],
      "duration": 30,
      "size_kb": 704,
      "preview_url": "https://bettery.art/ringtone/blash-ringtone/ringtone-underthemangotree-3.mp3",
      "url": "https://bettery.art/ringtone/blash-ringtone/ringtone-underthemangotree-3.mp3"
    },
    {
      "id": "28",
      "title": "Ringtone Pocketsunbeam(1) 2",
      "category": "blash-ringtone",
      "tags": [
        "blash-ringtone",
        "ringtone"
      ],
      "duration": 30,
      "size_kb": 704,
      "preview_url": "https://bettery.art/ringtone/blash-ringtone/ringtone-pocketsunbeam(1)-2.mp3",
      "url": "https://bettery.art/ringtone/blash-ringtone/ringtone-pocketsunbeam(1)-2.mp3"
    },
    {
      "id": "29",
      "title": "Ringtone Pocketsunbeam(1) 3",
      "category": "blash-ringtone",
      "tags": [
        "blash-ringtone",
        "ringtone"
      ],
      "duration": 30,
      "size_kb": 704,
      "preview_url": "https://bettery.art/ringtone/blash-ringtone/ringtone-pocketsunbeam(1)-3.mp3",
      "url": "https://bettery.art/ringtone/blash-ringtone/ringtone-pocketsunbeam(1)-3.mp3"
    },
    {
      "id": "30",
      "title": "Ringtone Underthemangotree 6",
      "category": "blash-ringtone",
      "tags": [
        "blash-ringtone",
        "ringtone"
      ],
      "duration": 30,
      "size_kb": 704,
      "preview_url": "https://bettery.art/ringtone/blash-ringtone/ringtone-underthemangotree-6.mp3",
      "url": "https://bettery.art/ringtone/blash-ringtone/ringtone-underthemangotree-6.mp3"
    }
  ]
}