{
  "category_id": "classic",
  "category_name": "Classic",
  "current_page": 2,
  "total_pages": 3,
  "items_per_page": 10,
  "total_items": 26,
  "has_next": true,
  "next_page_url": "/category/classic_page_3.json",
  "data": [
    {
      "id": "11",
      "title": "Ringtone 1 275863",
      "category": "classic",
      "tags": [
        "classic",
        "ringtone"
      ],
      "duration": 30,
      "size_kb": 214,
      "preview_url": "https://bettery.art/ringtone/classic/ringtone-1-275863.mp3",
      "url": "https://bettery.art/ringtone/classic/ringtone-1-275863.mp3"
    },
    {
      "id": "12",
      "title": "Classic Phone Ringtone 439122",
      "category": "classic",
      "tags": [
        "classic",
        "ringtone"
      ],
      "duration": 30,
      "size_kb": 346,
      "preview_url": "https://bettery.art/ringtone/classic/classic-phone-ringtone-439122.mp3",
      "url": "https://bettery.art/ringtone/classic/classic-phone-ringtone-439122.mp3"
    },
    {
      "id": "13",
      "title": "788210  Anonio82  Ring Tone",
      "category": "classic",
      "tags": [
        "classic",
        "ringtone"
      ],
      "duration": 30,
      "size_kb": 1034,
      "preview_url": "https://bettery.art/ringtone/classic/788210__anonio82__ring_tone.wav",
      "url": "https://bettery.art/ringtone/classic/788210__anonio82__ring_tone.wav"
    },
    {
      "id": "14",
      "title": "Notification 1 337826",
      "category": "classic",
      "tags": [
        "classic",
        "ringtone"
      ],
      "duration": 30,
      "size_kb": 67,
      "preview_url": "https://bettery.art/ringtone/classic/notification-1-337826.mp3",
      "url": "https://bettery.art/ringtone/classic/notification-1-337826.mp3"
    },
    {
      "id": "15",
      "title": "Phone Ringing 229175",
      "category": "classic",
      "tags": [
        "classic",
        "ringtone"
      ],
      "duration": 30,
      "size_kb": 106,
      "preview_url": "https://bettery.art/ringtone/classic/phone-ringing-229175.mp3",
      "url": "https://bettery.art/ringtone/classic/phone-ringing-229175.mp3"
    },
    {
      "id": "16",
      "title": "458866  Raclure  Telephone Ringtone",
      "category": "classic",
      "tags": [
        "classic",
        "ringtone"
      ],
      "duration": 30,
      "size_kb": 311,
      "preview_url": "https://bettery.art/ringtone/classic/458866__raclure__telephone-ringtone.wav",
      "url": "https://bettery.art/ringtone/classic/458866__raclure__telephone-ringtone.wav"
    },
    {
      "id": "17",
      "title": "168589  Mayanxibalba  Trilla 02",
      "category": "classic",
      "tags": [
        "classic",
        "ringtone"
      ],
      "duration": 30,
      "size_kb": 96,
      "preview_url": "https://bettery.art/ringtone/classic/168589__mayanxibalba__trilla_02.mp3",
      "url": "https://bettery.art/ringtone/classic/168589__mayanxibalba__trilla_02.mp3"
    },
    {
      "id": "18",
      "title": "170881  Kevenmw  Gnat Ringer2 With Tag",
      "category": "classic",
      "tags": [
        "classic",
        "ringtone"
      ],
      "duration": 30,
      "size_kb": 43,
      "preview_url": "https://bettery.art/ringtone/classic/170881__kevenmw__gnat-ringer2-with_tag.mp3",
      "url": "https://bettery.art/ringtone/classic/170881__kevenmw__gnat-ringer2-with_tag.mp3"
    },
    {
      "id": "19",
      "title": "826763  Buckfitches  Nokia Sms",
      "category": "classic",
      "tags": [
        "classic",
        "ringtone"
      ],
      "duration": 30,
      "size_kb": 45,
      "preview_url": "https://bettery.art/ringtone/classic/826763__buckfitches__nokia_sms.mp3",
      "url": "https://bettery.art/ringtone/classic/826763__buckfitches__nokia_sms.mp3"
    },
    {
      "id": "20",
      "title": "714982  Scottyd0Es  Aeroce Ringtone 2",
      "category": "classic",
      "tags": [
        "classic",
        "ringtone"
      ],
      "duration": 30,
      "size_kb": 1504,
      "preview_url": "https://bettery.art/ringtone/classic/714982__scottyd0es__aeroce-ringtone-2.wav",
      "url": "https://bettery.art/ringtone/classic/714982__scottyd0es__aeroce-ringtone-2.wav"
    }
  ]
}