{
  "category_id": "funny",
  "category_name": "Funny",
  "current_page": 1,
  "total_pages": 2,
  "items_per_page": 10,
  "total_items": 19,
  "has_next": true,
  "next_page_url": "/category/funny_page_2.json",
  "data": [
    {
      "id": "1",
      "title": "Tieng Dong Cuoi And Hand Massage Www Tieng Dong Com",
      "category": "funny",
      "tags": [
        "funny",
        "ringtone"
      ],
      "duration": 30,
      "size_kb": 219,
      "preview_url": "https://bettery.art/ringtone/funny/tieng_dam_dong_cuoi_va_vo_tay-www_tiengdong_com.mp3",
      "url": "https://bettery.art/ringtone/funny/tieng_dam_dong_cuoi_va_vo_tay-www_tiengdong_com.mp3"
    },
    {
      "id": "2",
      "title": "Dieu Cuto To The Tiengong Www You Stop",
      "category": "funny",
      "tags": [
        "funny",
        "ringtone"
      ],
      "duration": 30,
      "size_kb": 487,
      "preview_url": "https://bettery.art/ringtone/funny/Dieu_cuoi_tiktok-www_tiengdong_com.mp3",
      "url": "https://bettery.art/ringtone/funny/Dieu_cuoi_tiktok-www_tiengdong_com.mp3"
    },
    {
      "id": "3",
      "title": "The Last Language For Children Www Tiengdong Com",
      "category": "funny",
      "tags": [
        "funny",
        "ringtone"
      ],
      "duration": 30,
      "size_kb": 110,
      "preview_url": "https://bettery.art/ringtone/funny/tieng_cuoi_deu_giong_tre_con-www_tiengdong_com.mp3",
      "url": "https://bettery.art/ringtone/funny/tieng_cuoi_deu_giong_tre_con-www_tiengdong_com.mp3"
    },
    {
      "id": "4",
      "title": "Ac Quy'S Final Language Www Tiengdong Com",
      "category": "funny",
      "tags": [
        "funny",
        "ringtone"
      ],
      "duration": 30,
      "size_kb": 229,
      "preview_url": "https://bettery.art/ringtone/funny/tieng_cuoi_cua_Ac_quy-www_tiengdong_com.mp3",
      "url": "https://bettery.art/ringtone/funny/tieng_cuoi_cua_Ac_quy-www_tiengdong_com.mp3"
    },
    {
      "id": "5",
      "title": "Tieng Cuoi Faptv Or Use Www Tiengdong Com",
      "category": "funny",
      "tags": [
        "funny",
        "ringtone"
      ],
      "duration": 30,
      "size_kb": 106,
      "preview_url": "https://bettery.art/ringtone/funny/tieng_cuoi_faptv_hay_dung-www_tiengdong_com.mp3",
      "url": "https://bettery.art/ringtone/funny/tieng_cuoi_faptv_hay_dung-www_tiengdong_com.mp3"
    },
    {
      "id": "6",
      "title": "Mao De De'S Final Language Www Tiengdong Com",
      "category": "funny",
      "tags": [
        "funny",
        "ringtone"
      ],
      "duration": 30,
      "size_kb": 973,
      "preview_url": "https://bettery.art/ringtone/funny/tieng_cuoi_cua_mao_De_De-www_tiengdong_com.mp3",
      "url": "https://bettery.art/ringtone/funny/tieng_cuoi_cua_mao_De_De-www_tiengdong_com.mp3"
    },
    {
      "id": "7",
      "title": "Vietnamese Vietnamese Www Tiengdong Com",
      "category": "funny",
      "tags": [
        "funny",
        "ringtone"
      ],
      "duration": 30,
      "size_kb": 522,
      "preview_url": "https://bettery.art/ringtone/funny/tieng_vit_cuoi-www_tiengdong_com.mp3",
      "url": "https://bettery.art/ringtone/funny/tieng_vit_cuoi-www_tiengdong_com.mp3"
    },
    {
      "id": "8",
      "title": "Oh No No No Laugh Www Tiengdong Com",
      "category": "funny",
      "tags": [
        "funny",
        "ringtone"
      ],
      "duration": 30,
      "size_kb": 431,
      "preview_url": "https://bettery.art/ringtone/funny/oh_no_no_no_laugh-www_tiengdong_com.mp3",
      "url": "https://bettery.art/ringtone/funny/oh_no_no_no_laugh-www_tiengdong_com.mp3"
    },
    {
      "id": "9",
      "title": "The Last Song Is Shaking Dang So Www Tiengdong Com",
      "category": "funny",
      "tags": [
        "funny",
        "ringtone"
      ],
      "duration": 30,
      "size_kb": 518,
      "preview_url": "https://bettery.art/ringtone/funny/giong_cuoi_rung_ron_Dang_so-www_tiengdong_com.mp3",
      "url": "https://bettery.art/ringtone/funny/giong_cuoi_rung_ron_Dang_so-www_tiengdong_com.mp3"
    },
    {
      "id": "10",
      "title": "Tieng For Cuoi Meme Www Tiengdong Com",
      "category": "funny",
      "tags": [
        "funny",
        "ringtone"
      ],
      "duration": 30,
      "size_kb": 308,
      "preview_url": "https://bettery.art/ringtone/funny/tieng_cho_cuoi_meme-www_tiengdong_com.mp3",
      "url": "https://bettery.art/ringtone/funny/tieng_cho_cuoi_meme-www_tiengdong_com.mp3"
    }
  ]
}