{
  "category_id": "funny",
  "category_name": "Funny",
  "current_page": 2,
  "total_pages": 2,
  "items_per_page": 10,
  "total_items": 19,
  "has_next": false,
  "next_page_url": null,
  "data": [
    {
      "id": "11",
      "title": "The Best Final Quotes About Han Tinh Www Tiengdong Com",
      "category": "funny",
      "tags": [
        "funny",
        "ringtone"
      ],
      "duration": 30,
      "size_kb": 2179,
      "preview_url": "https://bettery.art/ringtone/funny/nhung_Dieu_cuoi_hay_nhat_hanh_tinh-www_tiengdong_com.mp3",
      "url": "https://bettery.art/ringtone/funny/nhung_Dieu_cuoi_hay_nhat_hanh_tinh-www_tiengdong_com.mp3"
    },
    {
      "id": "12",
      "title": "Weeeee Sound Effect Www Tiengdong Com",
      "category": "funny",
      "tags": [
        "funny",
        "ringtone"
      ],
      "duration": 30,
      "size_kb": 141,
      "preview_url": "https://bettery.art/ringtone/funny/weeeee_sound_effect-www_tiengdong_com.mp3",
      "url": "https://bettery.art/ringtone/funny/weeeee_sound_effect-www_tiengdong_com.mp3"
    },
    {
      "id": "13",
      "title": "English For Children To Love And Drink Www Tiengdong Com",
      "category": "funny",
      "tags": [
        "funny",
        "ringtone"
      ],
      "duration": 30,
      "size_kb": 308,
      "preview_url": "https://bettery.art/ringtone/funny/tieng_tre_em_cuoi_dua_va_chay-www_tiengdong_com.mp3",
      "url": "https://bettery.art/ringtone/funny/tieng_tre_em_cuoi_dua_va_chay-www_tiengdong_com.mp3"
    },
    {
      "id": "14",
      "title": "Tieng Cuoi Hehehe Www Tiengdong Com",
      "category": "funny",
      "tags": [
        "funny",
        "ringtone"
      ],
      "duration": 30,
      "size_kb": 61,
      "preview_url": "https://bettery.art/ringtone/funny/tieng_cuoi_hehehe-www_tiengdong_com.mp3",
      "url": "https://bettery.art/ringtone/funny/tieng_cuoi_hehehe-www_tiengdong_com.mp3"
    },
    {
      "id": "15",
      "title": "Tieng Cuoi Troll Www Tiengdong Com",
      "category": "funny",
      "tags": [
        "funny",
        "ringtone"
      ],
      "duration": 30,
      "size_kb": 645,
      "preview_url": "https://bettery.art/ringtone/funny/tieng_cuoi_troll-www_tiengdong_com.mp3",
      "url": "https://bettery.art/ringtone/funny/tieng_cuoi_troll-www_tiengdong_com.mp3"
    },
    {
      "id": "16",
      "title": "Camera Shutter Sound Effect Www Tiengdong Com",
      "category": "funny",
      "tags": [
        "funny",
        "ringtone"
      ],
      "duration": 30,
      "size_kb": 323,
      "preview_url": "https://bettery.art/ringtone/funny/camera_shutter_sound_effect-www_tiengdong_com.mp3",
      "url": "https://bettery.art/ringtone/funny/camera_shutter_sound_effect-www_tiengdong_com.mp3"
    },
    {
      "id": "17",
      "title": "U Hu Audio Understanding Www Tiengdong Com",
      "category": "funny",
      "tags": [
        "funny",
        "ringtone"
      ],
      "duration": 30,
      "size_kb": 60,
      "preview_url": "https://bettery.art/ringtone/funny/hieu_ung_am_thanh_U_hu-www_tiengdong_com.mp3",
      "url": "https://bettery.art/ringtone/funny/hieu_ung_am_thanh_U_hu-www_tiengdong_com.mp3"
    },
    {
      "id": "18",
      "title": "Pew Pew Pew Pew Sound Effect Www Tiengdong Com",
      "category": "funny",
      "tags": [
        "funny",
        "ringtone"
      ],
      "duration": 30,
      "size_kb": 489,
      "preview_url": "https://bettery.art/ringtone/funny/pew_pew_pew_pew_sound_effect-www_tiengdong_com.mp3",
      "url": "https://bettery.art/ringtone/funny/pew_pew_pew_pew_sound_effect-www_tiengdong_com.mp3"
    },
    {
      "id": "19",
      "title": "Tieng Cuoi Go Kien Woody Www Tiengdong Com",
      "category": "funny",
      "tags": [
        "funny",
        "ringtone"
      ],
      "duration": 30,
      "size_kb": 114,
      "preview_url": "https://bettery.art/ringtone/funny/tieng_cuoi_chim_go_kien_woody-www_tiengdong_com.mp3",
      "url": "https://bettery.art/ringtone/funny/tieng_cuoi_chim_go_kien_woody-www_tiengdong_com.mp3"
    }
  ]
}