{
  "category_id": "hot",
  "category_name": "Hot",
  "current_page": 7,
  "total_pages": 7,
  "items_per_page": 10,
  "total_items": 65,
  "has_next": false,
  "next_page_url": null,
  "data": [
    {
      "id": "61",
      "title": "Ringtone Eveningwindows 3",
      "category": "hot",
      "tags": [
        "hot",
        "ringtone"
      ],
      "duration": 30,
      "size_kb": 704,
      "preview_url": "https://bettery.art/ringtone/hot/ringtone-eveningwindows-3.mp3",
      "url": "https://bettery.art/ringtone/hot/ringtone-eveningwindows-3.mp3"
    },
    {
      "id": "62",
      "title": "Ringtone Eveningwindows 2",
      "category": "hot",
      "tags": [
        "hot",
        "ringtone"
      ],
      "duration": 30,
      "size_kb": 704,
      "preview_url": "https://bettery.art/ringtone/hot/ringtone-eveningwindows-2.mp3",
      "url": "https://bettery.art/ringtone/hot/ringtone-eveningwindows-2.mp3"
    },
    {
      "id": "63",
      "title": "Ringtone Midnightoncruisecontrol(1) 5",
      "category": "hot",
      "tags": [
        "hot",
        "ringtone"
      ],
      "duration": 30,
      "size_kb": 681,
      "preview_url": "https://bettery.art/ringtone/hot/ringtone-midnightoncruisecontrol(1)-5.mp3",
      "url": "https://bettery.art/ringtone/hot/ringtone-midnightoncruisecontrol(1)-5.mp3"
    },
    {
      "id": "64",
      "title": "Ringtone Midnightoncruisecontrol(1) 4",
      "category": "hot",
      "tags": [
        "hot",
        "ringtone"
      ],
      "duration": 30,
      "size_kb": 704,
      "preview_url": "https://bettery.art/ringtone/hot/ringtone-midnightoncruisecontrol(1)-4.mp3",
      "url": "https://bettery.art/ringtone/hot/ringtone-midnightoncruisecontrol(1)-4.mp3"
    },
    {
      "id": "65",
      "title": "Ringtone Eveningwindows 1",
      "category": "hot",
      "tags": [
        "hot",
        "ringtone"
      ],
      "duration": 30,
      "size_kb": 704,
      "preview_url": "https://bettery.art/ringtone/hot/ringtone-eveningwindows-1.mp3",
      "url": "https://bettery.art/ringtone/hot/ringtone-eveningwindows-1.mp3"
    }
  ]
}