{
  "category_id": "hot",
  "category_name": "Hot",
  "current_page": 3,
  "total_pages": 7,
  "items_per_page": 10,
  "total_items": 65,
  "has_next": true,
  "next_page_url": "/category/hot_page_4.json",
  "data": [
    {
      "id": "21",
      "title": "Ringtone Sunflowercarousel(1) 3",
      "category": "hot",
      "tags": [
        "hot",
        "ringtone"
      ],
      "duration": 30,
      "size_kb": 698,
      "preview_url": "https://bettery.art/ringtone/hot/ringtone-sunflowercarousel(1)-3.mp3",
      "url": "https://bettery.art/ringtone/hot/ringtone-sunflowercarousel(1)-3.mp3"
    },
    {
      "id": "22",
      "title": "Ringtone Midnightoncruisecontrol 4",
      "category": "hot",
      "tags": [
        "hot",
        "ringtone"
      ],
      "duration": 30,
      "size_kb": 704,
      "preview_url": "https://bettery.art/ringtone/hot/ringtone-midnightoncruisecontrol-4.mp3",
      "url": "https://bettery.art/ringtone/hot/ringtone-midnightoncruisecontrol-4.mp3"
    },
    {
      "id": "23",
      "title": "Ringtone Midnightoncruisecontrol 5",
      "category": "hot",
      "tags": [
        "hot",
        "ringtone"
      ],
      "duration": 30,
      "size_kb": 704,
      "preview_url": "https://bettery.art/ringtone/hot/ringtone-midnightoncruisecontrol-5.mp3",
      "url": "https://bettery.art/ringtone/hot/ringtone-midnightoncruisecontrol-5.mp3"
    },
    {
      "id": "24",
      "title": "Ringtone Midnightoncruisecontrol(2) 4",
      "category": "hot",
      "tags": [
        "hot",
        "ringtone"
      ],
      "duration": 30,
      "size_kb": 704,
      "preview_url": "https://bettery.art/ringtone/hot/ringtone-midnightoncruisecontrol(2)-4.mp3",
      "url": "https://bettery.art/ringtone/hot/ringtone-midnightoncruisecontrol(2)-4.mp3"
    },
    {
      "id": "25",
      "title": "Ringtone Midnightoncruisecontrol(2) 5",
      "category": "hot",
      "tags": [
        "hot",
        "ringtone"
      ],
      "duration": 30,
      "size_kb": 681,
      "preview_url": "https://bettery.art/ringtone/hot/ringtone-midnightoncruisecontrol(2)-5.mp3",
      "url": "https://bettery.art/ringtone/hot/ringtone-midnightoncruisecontrol(2)-5.mp3"
    },
    {
      "id": "26",
      "title": "Ringtone Gentlehorizon(1) 2",
      "category": "hot",
      "tags": [
        "hot",
        "ringtone"
      ],
      "duration": 30,
      "size_kb": 704,
      "preview_url": "https://bettery.art/ringtone/hot/ringtone-gentlehorizon(1)-2.mp3",
      "url": "https://bettery.art/ringtone/hot/ringtone-gentlehorizon(1)-2.mp3"
    },
    {
      "id": "27",
      "title": "Ringtone Midnightoncruisecontrol 2",
      "category": "hot",
      "tags": [
        "hot",
        "ringtone"
      ],
      "duration": 30,
      "size_kb": 704,
      "preview_url": "https://bettery.art/ringtone/hot/ringtone-midnightoncruisecontrol-2.mp3",
      "url": "https://bettery.art/ringtone/hot/ringtone-midnightoncruisecontrol-2.mp3"
    },
    {
      "id": "28",
      "title": "Sunflower Carousel",
      "category": "hot",
      "tags": [
        "hot",
        "ringtone"
      ],
      "duration": 30,
      "size_kb": 5795,
      "preview_url": "https://bettery.art/ringtone/hot/Sunflower Carousel.mp3",
      "url": "https://bettery.art/ringtone/hot/Sunflower Carousel.mp3"
    },
    {
      "id": "29",
      "title": "Ringtone Midnightoncruisecontrol(2) 1",
      "category": "hot",
      "tags": [
        "hot",
        "ringtone"
      ],
      "duration": 30,
      "size_kb": 704,
      "preview_url": "https://bettery.art/ringtone/hot/ringtone-midnightoncruisecontrol(2)-1.mp3",
      "url": "https://bettery.art/ringtone/hot/ringtone-midnightoncruisecontrol(2)-1.mp3"
    },
    {
      "id": "30",
      "title": "Ringtone Gentlehorizon 3",
      "category": "hot",
      "tags": [
        "hot",
        "ringtone"
      ],
      "duration": 30,
      "size_kb": 704,
      "preview_url": "https://bettery.art/ringtone/hot/ringtone-gentlehorizon-3.mp3",
      "url": "https://bettery.art/ringtone/hot/ringtone-gentlehorizon-3.mp3"
    }
  ]
}