{
  "category_id": "hot",
  "category_name": "Hot",
  "current_page": 4,
  "total_pages": 7,
  "items_per_page": 10,
  "total_items": 65,
  "has_next": true,
  "next_page_url": "/category/hot_page_5.json",
  "data": [
    {
      "id": "31",
      "title": "Ringtone Gentlehorizon 2",
      "category": "hot",
      "tags": [
        "hot",
        "ringtone"
      ],
      "duration": 30,
      "size_kb": 704,
      "preview_url": "https://bettery.art/ringtone/hot/ringtone-gentlehorizon-2.mp3",
      "url": "https://bettery.art/ringtone/hot/ringtone-gentlehorizon-2.mp3"
    },
    {
      "id": "32",
      "title": "Ringtone Midnightoncruisecontrol 3",
      "category": "hot",
      "tags": [
        "hot",
        "ringtone"
      ],
      "duration": 30,
      "size_kb": 704,
      "preview_url": "https://bettery.art/ringtone/hot/ringtone-midnightoncruisecontrol-3.mp3",
      "url": "https://bettery.art/ringtone/hot/ringtone-midnightoncruisecontrol-3.mp3"
    },
    {
      "id": "33",
      "title": "Ringtone Gentlehorizon(1) 1",
      "category": "hot",
      "tags": [
        "hot",
        "ringtone"
      ],
      "duration": 30,
      "size_kb": 704,
      "preview_url": "https://bettery.art/ringtone/hot/ringtone-gentlehorizon(1)-1.mp3",
      "url": "https://bettery.art/ringtone/hot/ringtone-gentlehorizon(1)-1.mp3"
    },
    {
      "id": "34",
      "title": "Ringtone Midnightoncruisecontrol 1",
      "category": "hot",
      "tags": [
        "hot",
        "ringtone"
      ],
      "duration": 30,
      "size_kb": 704,
      "preview_url": "https://bettery.art/ringtone/hot/ringtone-midnightoncruisecontrol-1.mp3",
      "url": "https://bettery.art/ringtone/hot/ringtone-midnightoncruisecontrol-1.mp3"
    },
    {
      "id": "35",
      "title": "Ringtone Midnightoncruisecontrol(2) 2",
      "category": "hot",
      "tags": [
        "hot",
        "ringtone"
      ],
      "duration": 30,
      "size_kb": 686,
      "preview_url": "https://bettery.art/ringtone/hot/ringtone-midnightoncruisecontrol(2)-2.mp3",
      "url": "https://bettery.art/ringtone/hot/ringtone-midnightoncruisecontrol(2)-2.mp3"
    },
    {
      "id": "36",
      "title": "Ringtone Gentlehorizon 1",
      "category": "hot",
      "tags": [
        "hot",
        "ringtone"
      ],
      "duration": 30,
      "size_kb": 704,
      "preview_url": "https://bettery.art/ringtone/hot/ringtone-gentlehorizon-1.mp3",
      "url": "https://bettery.art/ringtone/hot/ringtone-gentlehorizon-1.mp3"
    },
    {
      "id": "37",
      "title": "Ringtone Midnightoncruisecontrol(2) 3",
      "category": "hot",
      "tags": [
        "hot",
        "ringtone"
      ],
      "duration": 30,
      "size_kb": 704,
      "preview_url": "https://bettery.art/ringtone/hot/ringtone-midnightoncruisecontrol(2)-3.mp3",
      "url": "https://bettery.art/ringtone/hot/ringtone-midnightoncruisecontrol(2)-3.mp3"
    },
    {
      "id": "38",
      "title": "Ringtone Bubblepopalarm 1",
      "category": "hot",
      "tags": [
        "hot",
        "ringtone"
      ],
      "duration": 30,
      "size_kb": 704,
      "preview_url": "https://bettery.art/ringtone/hot/ringtone-bubblepopalarm-1.mp3",
      "url": "https://bettery.art/ringtone/hot/ringtone-bubblepopalarm-1.mp3"
    },
    {
      "id": "39",
      "title": "Ringtone Whimsyintheafternoon(1) 1",
      "category": "hot",
      "tags": [
        "hot",
        "ringtone"
      ],
      "duration": 30,
      "size_kb": 704,
      "preview_url": "https://bettery.art/ringtone/hot/ringtone-whimsyintheafternoon(1)-1.mp3",
      "url": "https://bettery.art/ringtone/hot/ringtone-whimsyintheafternoon(1)-1.mp3"
    },
    {
      "id": "40",
      "title": "Ringtone Eveningwindows(1) 4",
      "category": "hot",
      "tags": [
        "hot",
        "ringtone"
      ],
      "duration": 30,
      "size_kb": 704,
      "preview_url": "https://bettery.art/ringtone/hot/ringtone-eveningwindows(1)-4.mp3",
      "url": "https://bettery.art/ringtone/hot/ringtone-eveningwindows(1)-4.mp3"
    }
  ]
}