{
  "category_id": "hot",
  "category_name": "Hot",
  "current_page": 1,
  "total_pages": 7,
  "items_per_page": 10,
  "total_items": 65,
  "has_next": true,
  "next_page_url": "/category/hot_page_2.json",
  "data": [
    {
      "id": "1",
      "title": "Ringtone Eveningwindows(2) 2",
      "category": "hot",
      "tags": [
        "hot",
        "ringtone"
      ],
      "duration": 30,
      "size_kb": 704,
      "preview_url": "https://bettery.art/ringtone/hot/ringtone-eveningwindows(2)-2.mp3",
      "url": "https://bettery.art/ringtone/hot/ringtone-eveningwindows(2)-2.mp3"
    },
    {
      "id": "2",
      "title": "Ringtone Sunflowercarousel 1",
      "category": "hot",
      "tags": [
        "hot",
        "ringtone"
      ],
      "duration": 30,
      "size_kb": 704,
      "preview_url": "https://bettery.art/ringtone/hot/ringtone-sunflowercarousel-1.mp3",
      "url": "https://bettery.art/ringtone/hot/ringtone-sunflowercarousel-1.mp3"
    },
    {
      "id": "3",
      "title": "Ringtone Whimsyintheafternoon 6",
      "category": "hot",
      "tags": [
        "hot",
        "ringtone"
      ],
      "duration": 30,
      "size_kb": 704,
      "preview_url": "https://bettery.art/ringtone/hot/ringtone-whimsyintheafternoon-6.mp3",
      "url": "https://bettery.art/ringtone/hot/ringtone-whimsyintheafternoon-6.mp3"
    },
    {
      "id": "4",
      "title": "Ringtone Whimsyintheafternoon 7",
      "category": "hot",
      "tags": [
        "hot",
        "ringtone"
      ],
      "duration": 30,
      "size_kb": 704,
      "preview_url": "https://bettery.art/ringtone/hot/ringtone-whimsyintheafternoon-7.mp3",
      "url": "https://bettery.art/ringtone/hot/ringtone-whimsyintheafternoon-7.mp3"
    },
    {
      "id": "5",
      "title": "Ringtone Eveningwindows(2) 3",
      "category": "hot",
      "tags": [
        "hot",
        "ringtone"
      ],
      "duration": 30,
      "size_kb": 704,
      "preview_url": "https://bettery.art/ringtone/hot/ringtone-eveningwindows(2)-3.mp3",
      "url": "https://bettery.art/ringtone/hot/ringtone-eveningwindows(2)-3.mp3"
    },
    {
      "id": "6",
      "title": "Ringtone Eveningwindows(2) 1",
      "category": "hot",
      "tags": [
        "hot",
        "ringtone"
      ],
      "duration": 30,
      "size_kb": 704,
      "preview_url": "https://bettery.art/ringtone/hot/ringtone-eveningwindows(2)-1.mp3",
      "url": "https://bettery.art/ringtone/hot/ringtone-eveningwindows(2)-1.mp3"
    },
    {
      "id": "7",
      "title": "Ringtone Sunflowercarousel 2",
      "category": "hot",
      "tags": [
        "hot",
        "ringtone"
      ],
      "duration": 30,
      "size_kb": 704,
      "preview_url": "https://bettery.art/ringtone/hot/ringtone-sunflowercarousel-2.mp3",
      "url": "https://bettery.art/ringtone/hot/ringtone-sunflowercarousel-2.mp3"
    },
    {
      "id": "8",
      "title": "Ringtone Whimsyintheafternoon 5",
      "category": "hot",
      "tags": [
        "hot",
        "ringtone"
      ],
      "duration": 30,
      "size_kb": 704,
      "preview_url": "https://bettery.art/ringtone/hot/ringtone-whimsyintheafternoon-5.mp3",
      "url": "https://bettery.art/ringtone/hot/ringtone-whimsyintheafternoon-5.mp3"
    },
    {
      "id": "9",
      "title": "Ringtone Whimsyintheafternoon 4",
      "category": "hot",
      "tags": [
        "hot",
        "ringtone"
      ],
      "duration": 30,
      "size_kb": 704,
      "preview_url": "https://bettery.art/ringtone/hot/ringtone-whimsyintheafternoon-4.mp3",
      "url": "https://bettery.art/ringtone/hot/ringtone-whimsyintheafternoon-4.mp3"
    },
    {
      "id": "10",
      "title": "Ringtone Sunflowercarousel 3",
      "category": "hot",
      "tags": [
        "hot",
        "ringtone"
      ],
      "duration": 30,
      "size_kb": 704,
      "preview_url": "https://bettery.art/ringtone/hot/ringtone-sunflowercarousel-3.mp3",
      "url": "https://bettery.art/ringtone/hot/ringtone-sunflowercarousel-3.mp3"
    }
  ]
}