{
  "category_id": "hot",
  "category_name": "Hot",
  "current_page": 5,
  "total_pages": 7,
  "items_per_page": 10,
  "total_items": 65,
  "has_next": true,
  "next_page_url": "/category/hot_page_6.json",
  "data": [
    {
      "id": "41",
      "title": "Ringtone Bubblepopalarm 2",
      "category": "hot",
      "tags": [
        "hot",
        "ringtone"
      ],
      "duration": 30,
      "size_kb": 704,
      "preview_url": "https://bettery.art/ringtone/hot/ringtone-bubblepopalarm-2.mp3",
      "url": "https://bettery.art/ringtone/hot/ringtone-bubblepopalarm-2.mp3"
    },
    {
      "id": "42",
      "title": "Ringtone Whimsyintheafternoon(1) 2",
      "category": "hot",
      "tags": [
        "hot",
        "ringtone"
      ],
      "duration": 30,
      "size_kb": 704,
      "preview_url": "https://bettery.art/ringtone/hot/ringtone-whimsyintheafternoon(1)-2.mp3",
      "url": "https://bettery.art/ringtone/hot/ringtone-whimsyintheafternoon(1)-2.mp3"
    },
    {
      "id": "43",
      "title": "Ringtone Whimsyintheafternoon(1) 3",
      "category": "hot",
      "tags": [
        "hot",
        "ringtone"
      ],
      "duration": 30,
      "size_kb": 704,
      "preview_url": "https://bettery.art/ringtone/hot/ringtone-whimsyintheafternoon(1)-3.mp3",
      "url": "https://bettery.art/ringtone/hot/ringtone-whimsyintheafternoon(1)-3.mp3"
    },
    {
      "id": "44",
      "title": "Sunflower Carousel (1)",
      "category": "hot",
      "tags": [
        "hot",
        "ringtone"
      ],
      "duration": 30,
      "size_kb": 2525,
      "preview_url": "https://bettery.art/ringtone/hot/Sunflower Carousel (1).mp3",
      "url": "https://bettery.art/ringtone/hot/Sunflower Carousel (1).mp3"
    },
    {
      "id": "45",
      "title": "Ringtone Eveningwindows(1) 3",
      "category": "hot",
      "tags": [
        "hot",
        "ringtone"
      ],
      "duration": 30,
      "size_kb": 704,
      "preview_url": "https://bettery.art/ringtone/hot/ringtone-eveningwindows(1)-3.mp3",
      "url": "https://bettery.art/ringtone/hot/ringtone-eveningwindows(1)-3.mp3"
    },
    {
      "id": "46",
      "title": "Ringtone Bubblepopalarm(1) 2",
      "category": "hot",
      "tags": [
        "hot",
        "ringtone"
      ],
      "duration": 30,
      "size_kb": 704,
      "preview_url": "https://bettery.art/ringtone/hot/ringtone-bubblepopalarm(1)-2.mp3",
      "url": "https://bettery.art/ringtone/hot/ringtone-bubblepopalarm(1)-2.mp3"
    },
    {
      "id": "47",
      "title": "Ringtone Whimsyintheafternoon(1) 6",
      "category": "hot",
      "tags": [
        "hot",
        "ringtone"
      ],
      "duration": 30,
      "size_kb": 704,
      "preview_url": "https://bettery.art/ringtone/hot/ringtone-whimsyintheafternoon(1)-6.mp3",
      "url": "https://bettery.art/ringtone/hot/ringtone-whimsyintheafternoon(1)-6.mp3"
    },
    {
      "id": "48",
      "title": "Ringtone Bubblepopalarm(1) 3",
      "category": "hot",
      "tags": [
        "hot",
        "ringtone"
      ],
      "duration": 30,
      "size_kb": 704,
      "preview_url": "https://bettery.art/ringtone/hot/ringtone-bubblepopalarm(1)-3.mp3",
      "url": "https://bettery.art/ringtone/hot/ringtone-bubblepopalarm(1)-3.mp3"
    },
    {
      "id": "49",
      "title": "Ringtone Eveningwindows(1) 2",
      "category": "hot",
      "tags": [
        "hot",
        "ringtone"
      ],
      "duration": 30,
      "size_kb": 704,
      "preview_url": "https://bettery.art/ringtone/hot/ringtone-eveningwindows(1)-2.mp3",
      "url": "https://bettery.art/ringtone/hot/ringtone-eveningwindows(1)-2.mp3"
    },
    {
      "id": "50",
      "title": "Ringtone Bubblepopalarm(1) 1",
      "category": "hot",
      "tags": [
        "hot",
        "ringtone"
      ],
      "duration": 30,
      "size_kb": 704,
      "preview_url": "https://bettery.art/ringtone/hot/ringtone-bubblepopalarm(1)-1.mp3",
      "url": "https://bettery.art/ringtone/hot/ringtone-bubblepopalarm(1)-1.mp3"
    }
  ]
}