{
  "category_id": "relax",
  "category_name": "Relax",
  "current_page": 2,
  "total_pages": 2,
  "items_per_page": 10,
  "total_items": 18,
  "has_next": false,
  "next_page_url": null,
  "data": [
    {
      "id": "11",
      "title": "Am Thanh Tieng Dong Que Thanh Binh Www Tiengdong Com",
      "category": "relax",
      "tags": [
        "relax",
        "ringtone"
      ],
      "duration": 30,
      "size_kb": 5806,
      "preview_url": "https://bettery.art/ringtone/relax/Am_thanh_tieng_Dong_que_thanh_binh-www_tiengdong_com.mp3",
      "url": "https://bettery.art/ringtone/relax/Am_thanh_tieng_Dong_que_thanh_binh-www_tiengdong_com.mp3"
    },
    {
      "id": "12",
      "title": "Sound Of Spewing Lava From Nui Lua Www Tiengdong Com",
      "category": "relax",
      "tags": [
        "relax",
        "ringtone"
      ],
      "duration": 30,
      "size_kb": 287,
      "preview_url": "https://bettery.art/ringtone/relax/Am_thanh_phun_trao_dung_nham_nui_lua-www_tiengdong_com.mp3",
      "url": "https://bettery.art/ringtone/relax/Am_thanh_phun_trao_dung_nham_nui_lua-www_tiengdong_com.mp3"
    },
    {
      "id": "13",
      "title": "Tieng Hoa Mi Hot Www Tiengdong Com",
      "category": "relax",
      "tags": [
        "relax",
        "ringtone"
      ],
      "duration": 30,
      "size_kb": 3810,
      "preview_url": "https://bettery.art/ringtone/relax/tieng_hoa_mi_hot-www_tiengdong_com.mp3",
      "url": "https://bettery.art/ringtone/relax/tieng_hoa_mi_hot-www_tiengdong_com.mp3"
    },
    {
      "id": "14",
      "title": "English And Vietnamese Au Www Tiengdong Com",
      "category": "relax",
      "tags": [
        "relax",
        "ringtone"
      ],
      "duration": 30,
      "size_kb": 132,
      "preview_url": "https://bettery.art/ringtone/relax/tieng_song_va_tieng_hai_Au-www_tiengdong_com.mp3",
      "url": "https://bettery.art/ringtone/relax/tieng_song_va_tieng_hai_Au-www_tiengdong_com.mp3"
    },
    {
      "id": "15",
      "title": "Hot Bird Vegetarian Language Www Tiengdong Com",
      "category": "relax",
      "tags": [
        "relax",
        "ringtone"
      ],
      "duration": 30,
      "size_kb": 4063,
      "preview_url": "https://bettery.art/ringtone/relax/tieng_nuoc_chay_chim_hot-www_tiengdong_com.mp3",
      "url": "https://bettery.art/ringtone/relax/tieng_nuoc_chay_chim_hot-www_tiengdong_com.mp3"
    },
    {
      "id": "16",
      "title": "The Sound Of The Morning Breeze Www Tiengdong Com (1)",
      "category": "relax",
      "tags": [
        "relax",
        "ringtone"
      ],
      "duration": 30,
      "size_kb": 1741,
      "preview_url": "https://bettery.art/ringtone/relax/Am_thanh_buoi_sang_trong_lanh-www_tiengdong_com (1).mp3",
      "url": "https://bettery.art/ringtone/relax/Am_thanh_buoi_sang_trong_lanh-www_tiengdong_com (1).mp3"
    },
    {
      "id": "17",
      "title": "Listen To The Bird'S Voice In The Mountain Www Tiengdong Com",
      "category": "relax",
      "tags": [
        "relax",
        "ringtone"
      ],
      "duration": 30,
      "size_kb": 2596,
      "preview_url": "https://bettery.art/ringtone/relax/Am_thanh_tieng_chim_keu_trong_rung_nui-www_tiengdong_com.mp3",
      "url": "https://bettery.art/ringtone/relax/Am_thanh_tieng_chim_keu_trong_rung_nui-www_tiengdong_com.mp3"
    },
    {
      "id": "18",
      "title": "Hot Bird Language Liu Lo Am Thanh Should Go To Www Tiengdong Com",
      "category": "relax",
      "tags": [
        "relax",
        "ringtone"
      ],
      "duration": 30,
      "size_kb": 2918,
      "preview_url": "https://bettery.art/ringtone/relax/tieng_chim_hot_liu_lo_Am_thanh_nen_ke_chuyen-www_tiengdong_com.mp3",
      "url": "https://bettery.art/ringtone/relax/tieng_chim_hot_liu_lo_Am_thanh_nen_ke_chuyen-www_tiengdong_com.mp3"
    }
  ]
}