{
  "category_id": "relax",
  "category_name": "Relax",
  "current_page": 1,
  "total_pages": 2,
  "items_per_page": 10,
  "total_items": 18,
  "has_next": true,
  "next_page_url": "/category/relax_page_2.json",
  "data": [
    {
      "id": "1",
      "title": "The Sound Of The Hour Is Spicy, Www Tiengdong Com",
      "category": "relax",
      "tags": [
        "relax",
        "ringtone"
      ],
      "duration": 30,
      "size_kb": 509,
      "preview_url": "https://bettery.art/ringtone/relax/Am_thanh_tieng_gio_thoi_la_cay_ri_rao-www_tiengdong_com.mp3",
      "url": "https://bettery.art/ringtone/relax/Am_thanh_tieng_gio_thoi_la_cay_ri_rao-www_tiengdong_com.mp3"
    },
    {
      "id": "2",
      "title": "English Hot Lua In Hot Www Tiengdong Com",
      "category": "relax",
      "tags": [
        "relax",
        "ringtone"
      ],
      "duration": 30,
      "size_kb": 14461,
      "preview_url": "https://bettery.art/ringtone/relax/tieng_hoet_lua_trong_hot-www_tiengdong_com.mp3",
      "url": "https://bettery.art/ringtone/relax/tieng_hoet_lua_trong_hot-www_tiengdong_com.mp3"
    },
    {
      "id": "3",
      "title": "Hot Hot 5-Moon Hut Language Www Tiengdong Com",
      "category": "relax",
      "tags": [
        "relax",
        "ringtone"
      ],
      "duration": 30,
      "size_kb": 4643,
      "preview_url": "https://bettery.art/ringtone/relax/tieng_hut_mat_5_mau_hot-www_tiengdong_com.mp3",
      "url": "https://bettery.art/ringtone/relax/tieng_hut_mat_5_mau_hot-www_tiengdong_com.mp3"
    },
    {
      "id": "4",
      "title": "Am Thanh Hoa Sinh Suc Song Dam Choi Cay Moc Nang Luong Www Tiengdong Com",
      "category": "relax",
      "tags": [
        "relax",
        "ringtone"
      ],
      "duration": 30,
      "size_kb": 196,
      "preview_url": "https://bettery.art/ringtone/relax/Am_thanh_hoi_sinh_suc_song_Dam_choi_cay_moc_nang_luong-www_tiengdong_com.mp3",
      "url": "https://bettery.art/ringtone/relax/Am_thanh_hoi_sinh_suc_song_Dam_choi_cay_moc_nang_luong-www_tiengdong_com.mp3"
    },
    {
      "id": "5",
      "title": "Bright Morning Music Www Tiengdong Com",
      "category": "relax",
      "tags": [
        "relax",
        "ringtone"
      ],
      "duration": 30,
      "size_kb": 1741,
      "preview_url": "https://bettery.art/ringtone/relax/Am_thanh_buoi_sang_trong_lanh-www_tiengdong_com.mp3",
      "url": "https://bettery.art/ringtone/relax/Am_thanh_buoi_sang_trong_lanh-www_tiengdong_com.mp3"
    },
    {
      "id": "6",
      "title": "Hot Chinese Bird Language Www Tiengdong Com",
      "category": "relax",
      "tags": [
        "relax",
        "ringtone"
      ],
      "duration": 30,
      "size_kb": 10412,
      "preview_url": "https://bettery.art/ringtone/relax/tieng_chim_thanh_tuoc_hot-www_tiengdong_com.mp3",
      "url": "https://bettery.art/ringtone/relax/tieng_chim_thanh_tuoc_hot-www_tiengdong_com.mp3"
    },
    {
      "id": "7",
      "title": "Tieng Nuoc Grape Giot On The Surface Of The Country Www Tiengdong Com",
      "category": "relax",
      "tags": [
        "relax",
        "ringtone"
      ],
      "duration": 30,
      "size_kb": 524,
      "preview_url": "https://bettery.art/ringtone/relax/tieng_giot_nuoc_nho_giot_tren_mat_nuoc-www_tiengdong_com.mp3",
      "url": "https://bettery.art/ringtone/relax/tieng_giot_nuoc_nho_giot_tren_mat_nuoc-www_tiengdong_com.mp3"
    },
    {
      "id": "8",
      "title": "Hot Bird Language In Thanh Pho Www Tiengdong Com",
      "category": "relax",
      "tags": [
        "relax",
        "ringtone"
      ],
      "duration": 30,
      "size_kb": 309,
      "preview_url": "https://bettery.art/ringtone/relax/tieng_chim_hot_trong_cong_vien_thanh_pho-www_tiengdong_com.mp3",
      "url": "https://bettery.art/ringtone/relax/tieng_chim_hot_trong_cong_vien_thanh_pho-www_tiengdong_com.mp3"
    },
    {
      "id": "9",
      "title": "Omae Wa Mou Shindeiru Mp3 Www Tiengdong Com",
      "category": "relax",
      "tags": [
        "relax",
        "ringtone"
      ],
      "duration": 30,
      "size_kb": 396,
      "preview_url": "https://bettery.art/ringtone/relax/omae_wa_mou_shindeiru_mp3-www_tiengdong_com.mp3",
      "url": "https://bettery.art/ringtone/relax/omae_wa_mou_shindeiru_mp3-www_tiengdong_com.mp3"
    },
    {
      "id": "10",
      "title": "How Hot Is The Bird'S Language? Www Tiengdong Com",
      "category": "relax",
      "tags": [
        "relax",
        "ringtone"
      ],
      "duration": 30,
      "size_kb": 470,
      "preview_url": "https://bettery.art/ringtone/relax/tieng_chim_hot_sao_thoi-www_tiengdong_com.mp3",
      "url": "https://bettery.art/ringtone/relax/tieng_chim_hot_sao_thoi-www_tiengdong_com.mp3"
    }
  ]
}